%YAML 1.1
%TAG !u! tag:unity3d.com,2011:
--- !u!1 &100000
GameObject:
  m_ObjectHideFlags: 0
  m_PrefabParentObject: {fileID: 0}
  m_PrefabInternal: {fileID: 100100000}
  serializedVersion: 4
  m_Component:
  - 4: {fileID: 400000}
  - 114: {fileID: 11400000}
  m_Layer: 0
  m_Name: girl_s_walk_bp_big_blue
  m_TagString: Untagged
  m_Icon: {fileID: 0}
  m_NavMeshLayer: 0
  m_StaticEditorFlags: 0
  m_IsActive: 1
--- !u!4 &400000
Transform:
  m_ObjectHideFlags: 1
  m_PrefabParentObject: {fileID: 0}
  m_PrefabInternal: {fileID: 100100000}
  m_GameObject: {fileID: 100000}
  m_LocalRotation: {x: 0, y: 0, z: 0, w: 1}
  m_LocalPosition: {x: 0, y: 0, z: 0}
  m_LocalScale: {x: 1, y: 1, z: 1}
  m_Children: []
  m_Father: {fileID: 0}
  m_RootOrder: 0
--- !u!114 &11400000
MonoBehaviour:
  m_ObjectHideFlags: 1
  m_PrefabParentObject: {fileID: 0}
  m_PrefabInternal: {fileID: 100100000}
  m_GameObject: {fileID: 100000}
  m_Enabled: 1
  m_EditorHideFlags: 0
  m_Script: {fileID: 11500000, guid: 100b28cd99c15d44ea0162211d61273c, type: 3}
  m_Name: 
  m_EditorClassIdentifier: 
  FrameDuration: .100000001
  Sprites:
  - {fileID: 21300000, guid: bb1ff68251ee5a647b19dc47b9f1926f, type: 3}
  - {fileID: 21300000, guid: 11ca0a293932e98438711c264ed6e1f8, type: 3}
  - {fileID: 21300000, guid: 0b071b0f2ed4a464a99bd4783a991758, type: 3}
  - {fileID: 21300000, guid: 3f0b8dac8beb89b4786eb9aa75646a98, type: 3}
  - {fileID: 21300000, guid: 55bced15236121645aeef87001843cc9, type: 3}
  - {fileID: 21300000, guid: 84dbf601903e0e7429720d3449c12d92, type: 3}
  - {fileID: 21300000, guid: 397c1a48247b9a54abc4cf9ca08b73c3, type: 3}
  - {fileID: 21300000, guid: c2f40c1dbe4c35d49bd32ef9941122b7, type: 3}
--- !u!1001 &100100000
Prefab:
  m_ObjectHideFlags: 1
  serializedVersion: 2
  m_Modification:
    m_TransformParent: {fileID: 0}
    m_Modifications: []
    m_RemovedComponents: []
  m_ParentPrefab: {fileID: 0}
  m_RootGameObject: {fileID: 100000}
  m_IsPrefabParent: 1
  m_IsExploded: 1
