%YAML 1.1
%TAG !u! tag:unity3d.com,2011:
--- !u!1 &100000
GameObject:
  m_ObjectHideFlags: 0
  m_PrefabParentObject: {fileID: 0}
  m_PrefabInternal: {fileID: 100100000}
  serializedVersion: 4
  m_Component:
  - 4: {fileID: 400000}
  - 114: {fileID: 11400000}
  m_Layer: 0
  m_Name: girl_b_walk_bp_big_blue
  m_TagString: Untagged
  m_Icon: {fileID: 0}
  m_NavMeshLayer: 0
  m_StaticEditorFlags: 0
  m_IsActive: 1
--- !u!4 &400000
Transform:
  m_ObjectHideFlags: 1
  m_PrefabParentObject: {fileID: 0}
  m_PrefabInternal: {fileID: 100100000}
  m_GameObject: {fileID: 100000}
  m_LocalRotation: {x: 0, y: 0, z: 0, w: 1}
  m_LocalPosition: {x: 0, y: 0, z: 0}
  m_LocalScale: {x: 1, y: 1, z: 1}
  m_Children: []
  m_Father: {fileID: 0}
  m_RootOrder: 0
--- !u!114 &11400000
MonoBehaviour:
  m_ObjectHideFlags: 1
  m_PrefabParentObject: {fileID: 0}
  m_PrefabInternal: {fileID: 100100000}
  m_GameObject: {fileID: 100000}
  m_Enabled: 1
  m_EditorHideFlags: 0
  m_Script: {fileID: 11500000, guid: 100b28cd99c15d44ea0162211d61273c, type: 3}
  m_Name: 
  m_EditorClassIdentifier: 
  FrameDuration: .100000001
  Sprites:
  - {fileID: 21300000, guid: eb9f2558cab634749b0bb9e8e6832c7f, type: 3}
  - {fileID: 21300000, guid: f700e5c242fc24840b55c2da4dbb467f, type: 3}
  - {fileID: 21300000, guid: 8e398ecd4787d9f4ea07e8045f5baf24, type: 3}
  - {fileID: 21300000, guid: 5590e3c505cc3e5449320dfc7e89bd15, type: 3}
  - {fileID: 21300000, guid: 0b153c3b53127f84cac78705df9e0144, type: 3}
  - {fileID: 21300000, guid: 7caed8935b931164d96484e281d174b5, type: 3}
  - {fileID: 21300000, guid: 6eca11daff4144e4e95a387be74740ac, type: 3}
  - {fileID: 21300000, guid: ee7bbc9e57489c04f907c936096e636b, type: 3}
--- !u!1001 &100100000
Prefab:
  m_ObjectHideFlags: 1
  serializedVersion: 2
  m_Modification:
    m_TransformParent: {fileID: 0}
    m_Modifications: []
    m_RemovedComponents: []
  m_ParentPrefab: {fileID: 0}
  m_RootGameObject: {fileID: 100000}
  m_IsPrefabParent: 1
  m_IsExploded: 1
