%YAML 1.1
%TAG !u! tag:unity3d.com,2011:
--- !u!1 &100000
GameObject:
  m_ObjectHideFlags: 0
  m_PrefabParentObject: {fileID: 0}
  m_PrefabInternal: {fileID: 100100000}
  serializedVersion: 4
  m_Component:
  - 4: {fileID: 400000}
  - 114: {fileID: 11400000}
  m_Layer: 0
  m_Name: boy_f_walk_bp_small
  m_TagString: Untagged
  m_Icon: {fileID: 0}
  m_NavMeshLayer: 0
  m_StaticEditorFlags: 0
  m_IsActive: 1
--- !u!4 &400000
Transform:
  m_ObjectHideFlags: 1
  m_PrefabParentObject: {fileID: 0}
  m_PrefabInternal: {fileID: 100100000}
  m_GameObject: {fileID: 100000}
  m_LocalRotation: {x: 0, y: 0, z: 0, w: 1}
  m_LocalPosition: {x: 0, y: 0, z: 0}
  m_LocalScale: {x: 1, y: 1, z: 1}
  m_Children: []
  m_Father: {fileID: 0}
  m_RootOrder: 0
--- !u!114 &11400000
MonoBehaviour:
  m_ObjectHideFlags: 1
  m_PrefabParentObject: {fileID: 0}
  m_PrefabInternal: {fileID: 100100000}
  m_GameObject: {fileID: 100000}
  m_Enabled: 1
  m_EditorHideFlags: 0
  m_Script: {fileID: 11500000, guid: 100b28cd99c15d44ea0162211d61273c, type: 3}
  m_Name: 
  m_EditorClassIdentifier: 
  FrameDuration: .100000001
  Sprites:
  - {fileID: 21300000, guid: 349315d3735a1a64aa9b58b62e2515c1, type: 3}
  - {fileID: 21300000, guid: a63c388c158243b44b0913e9004449fc, type: 3}
  - {fileID: 21300000, guid: 76265b65e84891a4ebbda5375d08240d, type: 3}
  - {fileID: 21300000, guid: 143bdba45adbd534f8f48359f06cdf53, type: 3}
  - {fileID: 21300000, guid: 8cc4b1fcda95332469eb34e9acf8857a, type: 3}
  - {fileID: 21300000, guid: 43fd27d947d9e4441a3d4ef5ea62106d, type: 3}
  - {fileID: 21300000, guid: 8e8615808f29a214a9b7dde180cc1dd4, type: 3}
  - {fileID: 21300000, guid: b7d89a9784a068247b00e5def331bbb5, type: 3}
--- !u!1001 &100100000
Prefab:
  m_ObjectHideFlags: 1
  serializedVersion: 2
  m_Modification:
    m_TransformParent: {fileID: 0}
    m_Modifications: []
    m_RemovedComponents: []
  m_ParentPrefab: {fileID: 0}
  m_RootGameObject: {fileID: 100000}
  m_IsPrefabParent: 1
  m_IsExploded: 1
