%YAML 1.1
%TAG !u! tag:unity3d.com,2011:
--- !u!1 &100000
GameObject:
  m_ObjectHideFlags: 0
  m_PrefabParentObject: {fileID: 0}
  m_PrefabInternal: {fileID: 100100000}
  serializedVersion: 4
  m_Component:
  - 4: {fileID: 400000}
  - 114: {fileID: 11400000}
  m_Layer: 0
  m_Name: boy_s_walk_bp_big
  m_TagString: Untagged
  m_Icon: {fileID: 0}
  m_NavMeshLayer: 0
  m_StaticEditorFlags: 0
  m_IsActive: 1
--- !u!4 &400000
Transform:
  m_ObjectHideFlags: 1
  m_PrefabParentObject: {fileID: 0}
  m_PrefabInternal: {fileID: 100100000}
  m_GameObject: {fileID: 100000}
  m_LocalRotation: {x: 0, y: 0, z: 0, w: 1}
  m_LocalPosition: {x: 0, y: 0, z: 0}
  m_LocalScale: {x: 1, y: 1, z: 1}
  m_Children: []
  m_Father: {fileID: 0}
  m_RootOrder: 0
--- !u!114 &11400000
MonoBehaviour:
  m_ObjectHideFlags: 1
  m_PrefabParentObject: {fileID: 0}
  m_PrefabInternal: {fileID: 100100000}
  m_GameObject: {fileID: 100000}
  m_Enabled: 1
  m_EditorHideFlags: 0
  m_Script: {fileID: 11500000, guid: 100b28cd99c15d44ea0162211d61273c, type: 3}
  m_Name: 
  m_EditorClassIdentifier: 
  FrameDuration: .100000001
  Sprites:
  - {fileID: 21300000, guid: 4362873cea7f3ae42aa1c704fcede7a9, type: 3}
  - {fileID: 21300000, guid: b7145331762bf9b4ea87ef9301dd2a54, type: 3}
  - {fileID: 21300000, guid: b6824e22e4eb2b94388019ac2beb7c4d, type: 3}
  - {fileID: 21300000, guid: 3da5fc2438f64a742a3a26378c2d9596, type: 3}
  - {fileID: 21300000, guid: 7b6708a74de20ad4ca7b6b8b7e84182a, type: 3}
  - {fileID: 21300000, guid: bcb0b2b8496aeed4abc49b15bb131f94, type: 3}
  - {fileID: 21300000, guid: 79fdf32e0c230f84ea01ce137c0af8d9, type: 3}
  - {fileID: 21300000, guid: fe484ba94f4e3394780da9d6f01f530b, type: 3}
--- !u!1001 &100100000
Prefab:
  m_ObjectHideFlags: 1
  serializedVersion: 2
  m_Modification:
    m_TransformParent: {fileID: 0}
    m_Modifications: []
    m_RemovedComponents: []
  m_ParentPrefab: {fileID: 0}
  m_RootGameObject: {fileID: 100000}
  m_IsPrefabParent: 1
  m_IsExploded: 1
